<?xml version="1.0" encoding="utf-8"?>
<!-- Generator: Adobe Illustrator 21.0.0, SVG Export Plug-In . SVG Version: 6.00 Build 0)  -->
<svg version="1.1" id="Layer_1" xmlns="http://www.w3.org/2000/svg" xmlns:xlink="http://www.w3.org/1999/xlink" x="0px" y="0px"
	 viewBox="0 0 100 100" style="enable-background:new 0 0 100 100;" xml:space="preserve">
<style type="text/css">
	.st0{fill:#231F20;}
	.st1{fill:#CCCCCC;}
	.st2{fill:#FFFFFF;}
	.st3{fill:#FCD600;}
	.st4{fill:#999799;}
	.st5{opacity:0.45;fill:#231F20;}
	.st6{opacity:0.59;fill:#231F20;}
	.st7{fill:#2A77B5;}
	.st8{fill:#EFE7E7;}
	.st9{fill:#3E3E3E;}
	.st10{opacity:0.6;fill:url(#SVGID_7_);}
	.st11{fill:#FF00FF;}
	.st12{fill:none;stroke:#FF00FF;stroke-width:2;stroke-miterlimit:10;}
	.st13{fill:none;stroke:#FF00FF;stroke-width:2;stroke-miterlimit:10;stroke-dasharray:10.0331,10.0331;}
	.st14{fill:#5DC9E3;}
	.st15{fill:none;stroke:#FFFFFF;stroke-width:2.6934;stroke-miterlimit:10;}
	.st16{fill:#4060AB;}
	.st17{clip-path:url(#SVGID_13_);}
	.st18{clip-path:url(#SVGID_15_);}
	.st19{fill:#4160AC;}
	.st20{fill:#FCD700;}
	.st21{opacity:0.57;fill:#231F20;}
	.st22{fill:none;stroke:#000000;stroke-width:3.0484;stroke-miterlimit:10;}
	.st23{fill:#808184;}
	.st24{fill:#231F20;stroke:#3F4040;stroke-width:1.5312;stroke-miterlimit:10;}
	.st25{fill:none;}
	.st26{opacity:0.5;fill:#231F20;}
	.st27{opacity:0.6;fill:#231F20;}
	.st28{clip-path:url(#SVGID_21_);fill:#FFFFFF;}
	.st29{fill:#B3B3B3;}
	.st30{fill:#EE194A;}
	.st31{fill:none;stroke:#FFFFFF;stroke-miterlimit:10;}
	.st32{fill:#333333;}
	.st33{fill:#F66F1D;}
	.st34{fill:#ED1D52;}
	.st35{fill:#ED2A53;}
	.st36{clip-path:url(#SVGID_23_);}
	.st37{fill:#101010;}
	.st38{clip-path:url(#SVGID_25_);}
	.st39{clip-path:url(#SVGID_25_);fill:#101010;}
	.st40{fill:#F26F21;}
</style>
<g>
	<circle class="st3" cx="50" cy="50" r="45.6"/>
	<path class="st0" d="M75.8,26.9c-0.6-0.1-1,0.2-1.4,0.6c-4.5,4.8-9.1,9.6-13.6,14.4c-1.9,2-3.7,3.9-5.6,5.8c-0.7,0.8-7.5,8-8.2,8.7
		c-0.7,0.7-1.3,0.7-1.9-0.1c-0.1-0.1-0.2-0.2-0.2-0.4c0,0,0,0,0,0c0,0,0,0,0,0c-0.4-0.5-7.2-10.7-7.6-11.3c-0.8-1.1-1.8-1.7-3.2-1.7
		c-2.7,0-5.4,0-8.2,0c-1.1,0-1.9,0.3-2.4,1.3c-0.5,1-0.2,1.9,0.5,2.7c0.9,1.1,9,11.6,9.8,12.8c0.7,0.9,1.4,1.8,2.1,2.7
		c2.4,3.1,4.8,6.3,7.3,9.4c1.5,1.9,3.9,1.8,5.3-0.2c0.2-0.3,0.4-0.6,0.6-0.9c2.5-3.9,15.1-23.1,18-27.5l0,0c1.9-2.9,3.8-5.9,5.8-8.8
		c1.2-1.8,2.4-3.7,3.6-5.5C76.9,28,76.7,27.1,75.8,26.9z M74.4,29.6c-2.9,4.4-5.8,8.8-8.6,13.2C64.1,45.4,52.7,62.9,51,65.4
		c-1.2,1.8-2.3,3.6-3.5,5.3c-1,1.5-2.4,1.6-3.5,0.1c-3-4-6.1-7.9-9.1-11.9l0,0l-7.5-9.8c-0.8-1.1-1.7-2.1-2.5-3.2
		c-0.6-0.8-0.1-1.8,0.9-1.8c2.9,0,5.8,0,8.6,0c0.8,0,1.4,0.3,1.8,1c0.4,0.6,7.5,11.1,7.9,11.7c0.1,0.1,0.2,0.3,0.3,0.4
		c0.8,1.2,2.4,1.2,3.5,0.1c0.7-0.8,7.5-8,8.2-8.7c0.2-0.2,0.3-0.3,0.5-0.5c4.4-4.7,8.8-9.3,13.2-14c1.6-1.7,3.1-3.3,4.7-5
		C74.7,29.4,74.5,29.5,74.4,29.6z"/>
</g>
</svg>
